{
    "object": "list",
    "not_found": [],
    "has_more": true,
    "next_page": "https://example.com",
    "data": [
        {
            "object": "card",
            "id": "9e369f3f-354b-42bf-9b2f-286912730c6c",
            "oracle_id": "32fbb638-ab14-4e8b-a07a-d4c44e3496f2",
            "multiverse_ids": [
                490004
            ],
            "mtgo_id": 82696,
            "tcgplayer_id": 218285,
            "cardmarket_id": 482704,
            "name": "Urza's Tower",
            "lang": "en",
            "released_at": "2020-08-07",
            "uri": "https://api.scryfall.com/cards/9e369f3f-354b-42bf-9b2f-286912730c6c",
            "scryfall_uri": "https://scryfall.com/card/2xm/331/urzas-tower?utm_source=api",
            "layout": "normal",
            "highres_image": true,
            "image_status": "highres_scan",
            "image_uris": {
                "small": "https://c1.scryfall.com/file/scryfall-cards/small/front/9/e/9e369f3f-354b-42bf-9b2f-286912730c6c.jpg?1599710735",
                "normal": "https://c1.scryfall.com/file/scryfall-cards/normal/front/9/e/9e369f3f-354b-42bf-9b2f-286912730c6c.jpg?1599710735",
                "large": "https://c1.scryfall.com/file/scryfall-cards/large/front/9/e/9e369f3f-354b-42bf-9b2f-286912730c6c.jpg?1599710735",
                "png": "https://c1.scryfall.com/file/scryfall-cards/png/front/9/e/9e369f3f-354b-42bf-9b2f-286912730c6c.png?1599710735",
                "art_crop": "https://c1.scryfall.com/file/scryfall-cards/art_crop/front/9/e/9e369f3f-354b-42bf-9b2f-286912730c6c.jpg?1599710735",
                "border_crop": "https://c1.scryfall.com/file/scryfall-cards/border_crop/front/9/e/9e369f3f-354b-42bf-9b2f-286912730c6c.jpg?1599710735"
            },
            "mana_cost": "",
            "cmc": 0.0,
            "type_line": "Land — Urza’s Tower",
            "oracle_text": "{T}: Add {C}. If you control an Urza's Mine and an Urza's Power-Plant, add {C}{C}{C} instead.",
            "colors": [],
            "color_identity": [],
            "keywords": [],
            "produced_mana": [
                "C"
            ],
            "all_parts": [
                {
                    "object": "related_card",
                    "id": "08dea8f6-bd32-44a3-bec4-93a5607819df",
                    "component": "combo_piece",
                    "name": "Urza's Mine",
                    "type_line": "Land — Urza’s Mine",
                    "uri": "https://api.scryfall.com/cards/08dea8f6-bd32-44a3-bec4-93a5607819df"
                },
                {
                    "object": "related_card",
                    "id": "54445d1f-5426-47e9-9e02-0274cea7174f",
                    "component": "combo_piece",
                    "name": "Urza's Power Plant",
                    "type_line": "Land — Urza’s Power-Plant",
                    "uri": "https://api.scryfall.com/cards/54445d1f-5426-47e9-9e02-0274cea7174f"
                },
                {
                    "object": "related_card",
                    "id": "9e369f3f-354b-42bf-9b2f-286912730c6c",
                    "component": "combo_piece",
                    "name": "Urza's Tower",
                    "type_line": "Land — Urza’s Tower",
                    "uri": "https://api.scryfall.com/cards/9e369f3f-354b-42bf-9b2f-286912730c6c"
                }
            ],
            "legalities": {
                "standard": "not_legal",
                "future": "not_legal",
                "historic": "not_legal",
                "gladiator": "not_legal",
                "pioneer": "not_legal",
                "explorer": "not_legal",
                "modern": "legal",
                "legacy": "legal",
                "pauper": "legal",
                "vintage": "legal",
                "penny": "not_legal",
                "commander": "legal",
                "brawl": "not_legal",
                "historicbrawl": "not_legal",
                "alchemy": "not_legal",
                "paupercommander": "legal",
                "duel": "legal",
                "oldschool": "not_legal",
                "premodern": "legal"
            },
            "games": [
                "paper",
                "mtgo"
            ],
            "reserved": false,
            "foil": true,
            "nonfoil": true,
            "finishes": [
                "nonfoil",
                "foil"
            ],
            "oversized": false,
            "promo": false,
            "reprint": true,
            "variation": false,
            "set_id": "372dafe8-b5d1-4b81-998f-3ae96b59498a",
            "set": "2xm",
            "set_name": "Double Masters",
            "set_type": "masters",
            "set_uri": "https://api.scryfall.com/sets/372dafe8-b5d1-4b81-998f-3ae96b59498a",
            "set_search_uri": "https://api.scryfall.com/cards/search?order=set&q=e%3A2xm&unique=prints",
            "scryfall_set_uri": "https://scryfall.com/sets/2xm?utm_source=api",
            "rulings_uri": "https://api.scryfall.com/cards/9e369f3f-354b-42bf-9b2f-286912730c6c/rulings",
            "prints_search_uri": "https://api.scryfall.com/cards/search?order=released&q=oracleid%3A32fbb638-ab14-4e8b-a07a-d4c44e3496f2&unique=prints",
            "collector_number": "331",
            "digital": false,
            "rarity": "common",
            "flavor_text": "Urza studied the creations of the Thran not simply to learn from them, but to surpass them.",
            "card_back_id": "0aeebaf5-8c7d-4636-9e82-8c27447861f7",
            "artist": "Brian Snõddy",
            "artist_ids": [
                "770b4e16-de76-49ed-949f-84e6d2e06d25"
            ],
            "illustration_id": "293ace7e-ef51-489b-8827-7838c4b6ad97",
            "border_color": "black",
            "frame": "2015",
            "full_art": false,
            "textless": false,
            "booster": true,
            "story_spotlight": false,
            "edhrec_rank": 1365,
            "penny_rank": 11398,
            "preview": {
                "source": "GameSpot",
                "source_uri": "https://www.gamespot.com/articles/magic-the-gathering-reveals-new-cards-for-double-m/1100-6479858/",
                "previewed_at": "2020-07-20"
            },
            "prices": {
                "usd": "1.02",
                "usd_foil": "1.18",
                "usd_etched": null,
                "eur": "0.68",
                "eur_foil": "0.84",
                "tix": "0.04"
            },
            "related_uris": {
                "gatherer": "https://gatherer.wizards.com/Pages/Card/Details.aspx?multiverseid=490004",
                "tcgplayer_infinite_articles": "https://infinite.tcgplayer.com/search?contentMode=article&game=magic&partner=scryfall&q=Urza%27s+Tower&utm_campaign=affiliate&utm_medium=api&utm_source=scryfall",
                "tcgplayer_infinite_decks": "https://infinite.tcgplayer.com/search?contentMode=deck&game=magic&partner=scryfall&q=Urza%27s+Tower&utm_campaign=affiliate&utm_medium=api&utm_source=scryfall",
                "edhrec": "https://edhrec.com/route/?cc=Urza%27s+Tower"
            },
            "purchase_uris": {
                "tcgplayer": "https://www.tcgplayer.com/product/218285?page=1&utm_campaign=affiliate&utm_medium=api&utm_source=scryfall",
                "cardmarket": "https://www.cardmarket.com/en/Magic/Products/Search?referrer=scryfall&searchString=Urza%27s+Tower&utm_campaign=card_prices&utm_medium=text&utm_source=scryfall",
                "cardhoarder": "https://www.cardhoarder.com/cards/82696?affiliate_id=scryfall&ref=card-profile&utm_campaign=affiliate&utm_medium=card&utm_source=scryfall"
            }
        }
    ]
}
